String objects are immutable whereas StringBuffer are mutable
Change in Stringbuffer objects are reflected where as it is not the case in 
String objects
String Buffer occupies more memory than String.
Strings are stored as a buffer or temporary memory.
---------------------------------------
import java.io.*;
import java.util.*;
import java.lang.*;
class KillNumSub
{
public static void main(String args[])
{
String string1,string2
int i;
Scanner in=new Scanner(System.in);
string1=in.nextLine();
//remove numeric values
for(i=0;i<string1.length();i++)
{
if((string1.charAt(i)>=0) && (s1.charAt(i)<=9))
{
string1.deleteChar(i);
}
}//remove substring
System.out.println("Enter any substring to be removed:");
string2=in.nextLine();
string1=string1.replaceAll(string2," ");
System.out.println("The sentence is:"+string1);
}
}  
---------------------------------------
import java.io.*;
import java.util.*;
import java.lang.*;
class Replace
{
public static void main(String args[])
{
String string1,string2;
int i;
Scanner in=new Scanner(System.in);
string1=in.nextLine();
//replace a character
string1.replace(1,4,"HELLOWORLD!");
System.out.println("The replaced string is:"+string1);
//replace substring
string2=string1.substring(6,10);

string1=string1.replaceAll(string2,"CHARAN");
System.out.println("The sentence is:"+string1);
}
}

---------------------------------------
import java.util.*;
public class StrSorting
{
	public static void main(String args[])
	{
	int size,i;
        Scanner str = new Scanner(System.in);
        System.out.print("Enter Size Of The Array: ");
        size = str.nextInt();
	String[] strin=new String[n];
	System.out.println("Enter string values: ");
        for(i = 0; i < size; i++)
        {
            strin[i]=str.nextLine();
        }
		Arrays.sort(strin);
		for(i=0; i < n; i++){
            System.out.println(strin[i]);
                }
	}
}
----------------------------------------------------
import java.util.*;
 
class Palindrome
{
   public static void main(String args[])
   {
      String ori, rev = "";//original,reverse
      Scanner in = new Scanner(System.in);
 
      System.out.println("Enter a string to check if it is a palindrome");
      ori = in.nextLine();
 
      int length = ori.length();
 
      for ( int i = length - 1; i >= 0; i-- )
         rev = rev + original.charAt(i);
 
      if (ori.equals(rev))
         System.out.println("Entered string is a palindrome.");
      else
         System.out.println("Entered string is not a palindrome.");
 
   }
}	


---------------------------------------------------
import java.util.*;
public class Split {

  public static void main(String[] args) {

    String club = "FOOTBALL CLUBS:MANUTD:CHELSEA:ARSENAL:LIVERPOOL";
    String[] result = club.split(":");
    for (int x=0; x<result.length; x++) {
      System.out.println(result[x]);
    }

  }

}
--------------------------------------------------
class concat{
public static void main(String args[]){
String firstName = "Jaya";
String lastName  = "Charan";
String fullName  = firstName + " " + lastName;}}
--------------------------------------------------
"==" operator compares 2 objects and checks if they are assigned the same address.
The "equals()" method compares the  Strings content & not the address
---------------------------------------------------
import java.io.*;
class InfoStr
{
 static String rando;
 static int len;
 public static void main(String args[]) throws IOException
 {
 BufferedReader br = new BufferedReader(new InputStreamReader(System.in));
 // Read the String
 System.out.print("Enter a String : ");
 random = br.readLine();
 len = rando.length();
 find();
 }
 public static void find()
 {
 int a=0,b=0,c=0,d=0,e=0;
 char ch;
 for(int i=0;i<l;i++)
 {
  ch = rando.charAt(i);
  if(ch>=65 && ch<=90) // Condition for Uppercase letters
  a++;
  if(ch>='a' && ch <='z')
  b++;
  if(ch>='0' && ch<='9')
  c++;
  if(ch=='A' || ch=='E' || ch=='I' || ch=='O' || ch=='U' ||
  ch=='a' || ch=='e' || ch=='i' || ch=='o' || ch=='u')
  d++;
  if(ch==' ') // Condition for spaces
  e++;
        }
 System.out.println("\nNo. of Uppercase letters = " +a);
 System.out.println("\nNo.of Lowercase letters = " +b);
 System.out.println("\nNo. of Digits = " +c);
 
 System.out.println("\nNo. of Special Characters = "+(l-(a+b+c+e)));
 }
}

-----------------------------------------------------

OVERRIDING
 
class Name{  
    public String fname, lname;
 
    public Name(String fname, String lname) {
        this.fname = fname;
        this.lname = lname;
    }
@Override
public String toString(){
return String.format(fname+"."+lname);
}
public boolean equals(Object x)
{
if(x==this){return true;}
if(!(x instanceof Name)){return false;}
}


}
public class main
{
public static void main(String args[])
{
Name n1=new Name("Jaya","Charan");
Name n2=new Name("Jaya","Charan");
if(n1.equals(n2))
System.out.println("TRUE");
else
System,out.println("FALSE");

System.out.println(n1);
}}